\relax 
\providecommand\hyper@newdestlabel[2]{}
\catcode `"\active 
\bibstyle{unsrt}
\providecommand\HyperFirstAtBeginDocument{\AtBeginDocument}
\HyperFirstAtBeginDocument{\ifx\hyper@anchor\@undefined
\global\let\oldcontentsline\contentsline
\gdef\contentsline#1#2#3#4{\oldcontentsline{#1}{#2}{#3}}
\global\let\oldnewlabel\newlabel
\gdef\newlabel#1#2{\newlabelxx{#1}#2}
\gdef\newlabelxx#1#2#3#4#5#6{\oldnewlabel{#1}{{#2}{#3}}}
\AtEndDocument{\ifx\hyper@anchor\@undefined
\let\contentsline\oldcontentsline
\let\newlabel\oldnewlabel
\fi}
\fi}
\global\let\hyper@last\relax 
\gdef\HyperFirstAtBeginDocument#1{#1}
\providecommand\HyField@AuxAddToFields[1]{}
\providecommand\HyField@AuxAddToCoFields[2]{}
\babel@aux{ngerman}{}
\@writefile{toc}{\contentsline {section}{\numberline {1}\IeC {\"U}bung 5}{1}{section.1}}
\@writefile{toc}{\contentsline {subsection}{\numberline {1.1}Was sind H\IeC {\"o}henlinien und zu welcher Art von Linien geh\IeC {\"o}ren sie (\IeC {\"U}berbegriff)?}{1}{subsection.1.1}}
\@writefile{toc}{\contentsline {subsection}{\numberline {1.2}Tendenziell ist}{1}{subsection.1.2}}
\@writefile{toc}{\contentsline {subsubsection}{\numberline {1.2.1}die \IeC {\"A}quidistanz von HL gr\IeC {\"o}\IeC {\ss }er/kleiner je steiler das darzustellende Gel\IeC {\"a}nde ist.}{1}{subsubsection.1.2.1}}
\@writefile{toc}{\contentsline {subsubsection}{\numberline {1.2.2}die \IeC {\"A}quidistanz von HL gr\IeC {\"o}\IeC {\ss }er/kleiner je kleiner der Ma\IeC {\ss }stab ist.}{1}{subsubsection.1.2.2}}
\@writefile{toc}{\contentsline {subsection}{\numberline {1.3}Je kleiner die \IeC {\"A}quidistanz desto dichter/lichter ist die HL-Scharung (bei gleicher Gel\IeC {\"a}ndesteigung).}{1}{subsection.1.3}}
\@writefile{toc}{\contentsline {subsection}{\numberline {1.4}Welche Vor- und Nachteile hat die Wahl einer kombinierten \IeC {\"A}quidistanz?}{1}{subsection.1.4}}
\@writefile{toc}{\contentsline {subsection}{\numberline {1.5}Welche Vor- und Nachteile hat der Einsatz von Hilfsh\IeC {\"o}henlinien?}{1}{subsection.1.5}}
\@writefile{toc}{\contentsline {subsection}{\numberline {1.6}Je enger der grafische Abstand der H\IeC {\"o}henlinien desto steiler/flacher ist das Gel\IeC {\"a}nde.}{2}{subsection.1.6}}
\@writefile{toc}{\contentsline {subsection}{\numberline {1.7}In welchem Abstand w\IeC {\"u}rden Sie verst\IeC {\"a}rkte Haupth\IeC {\"o}henlinien einsetzen bei einer \IeC {\"A}quidistanz von A: 5m / B: 10m / C: 20m / D: 25m}{2}{subsection.1.7}}
\@writefile{toc}{\contentsline {subsection}{\numberline {1.8}Nennen Sie 2 Kartenbeispiele, in denen eine detaillierte Gel\IeC {\"a}ndedarstellung erforderlich ist und 2 Kartenbeispiele, in denen die Beschreibung des Reliefs unn\IeC {\"o}tig ist.}{2}{subsection.1.8}}
\@writefile{toc}{\contentsline {subsection}{\numberline {1.9}5.9 Was ist die niedrigste und h\IeC {\"o}chste Gel\IeC {\"a}ndeh\IeC {\"o}he bei einer \IeC {\"A}quidistanz von 5m bei der unteren Grafik! Beachten Sie, dass nur ein H\IeC {\"o}henbereich (h\IeC {\"o}her/niedriger als..) angegeben werden kann oder beschriften Sie die H\IeC {\"o}henlinien direkt!}{2}{subsection.1.9}}
\@writefile{lof}{\contentsline {figure}{\numberline {1}{\ignorespaces Niedrigste und h\IeC {\"o}chste Gel\IeC {\"a}ndeh\IeC {\"o}he\relax }}{2}{figure.caption.1}}
\@writefile{toc}{\contentsline {section}{\numberline {2}\IeC {\"U}bung 6}{3}{section.2}}
\@writefile{lof}{\contentsline {figure}{\numberline {2}{\ignorespaces \IeC {\"U}bersicht aller gegebenen Darstellungen\relax }}{3}{figure.caption.2}}
\@writefile{toc}{\contentsline {section}{\numberline {3}\IeC {\"U}bung 7}{4}{section.3}}
\@writefile{toc}{\contentsline {subsection}{\numberline {3.1}Kombintation von 3+6}{4}{subsection.3.1}}
\@writefile{lof}{\contentsline {figure}{\numberline {3}{\ignorespaces 3\relax }}{4}{figure.caption.3}}
\@writefile{lof}{\contentsline {figure}{\numberline {4}{\ignorespaces 6\relax }}{4}{figure.caption.3}}
\@writefile{lof}{\contentsline {figure}{\numberline {5}{\ignorespaces Kombination 3+6\relax }}{4}{figure.caption.3}}
\@writefile{toc}{\contentsline {subsection}{\numberline {3.2}Kombintation von 3+8}{4}{subsection.3.2}}
\@writefile{lof}{\contentsline {figure}{\numberline {6}{\ignorespaces 3\relax }}{4}{figure.caption.4}}
\@writefile{lof}{\contentsline {figure}{\numberline {7}{\ignorespaces 8\relax }}{4}{figure.caption.4}}
\@writefile{lof}{\contentsline {figure}{\numberline {8}{\ignorespaces Kombination 3+8\relax }}{4}{figure.caption.4}}
\@writefile{toc}{\contentsline {subsection}{\numberline {3.3}Kombintation von 4+6}{4}{subsection.3.3}}
\@writefile{lof}{\contentsline {figure}{\numberline {9}{\ignorespaces 4\relax }}{4}{figure.caption.5}}
\@writefile{lof}{\contentsline {figure}{\numberline {10}{\ignorespaces 6\relax }}{4}{figure.caption.5}}
\@writefile{lof}{\contentsline {figure}{\numberline {11}{\ignorespaces Kombination 4+6\relax }}{4}{figure.caption.5}}
\@writefile{toc}{\contentsline {subsection}{\numberline {3.4}Kombintation von 5+8}{5}{subsection.3.4}}
\@writefile{lof}{\contentsline {figure}{\numberline {12}{\ignorespaces 5\relax }}{5}{figure.caption.6}}
\@writefile{lof}{\contentsline {figure}{\numberline {13}{\ignorespaces 8\relax }}{5}{figure.caption.6}}
\@writefile{lof}{\contentsline {figure}{\numberline {14}{\ignorespaces Kombination 5+8\relax }}{5}{figure.caption.6}}
\@writefile{toc}{\contentsline {subsection}{\numberline {3.5}Kombintation von 2+3}{5}{subsection.3.5}}
\@writefile{lof}{\contentsline {figure}{\numberline {15}{\ignorespaces 2\relax }}{5}{figure.caption.7}}
\@writefile{lof}{\contentsline {figure}{\numberline {16}{\ignorespaces 3\relax }}{5}{figure.caption.7}}
\@writefile{lof}{\contentsline {figure}{\numberline {17}{\ignorespaces Kombination 2+3\relax }}{5}{figure.caption.7}}
