# Fdb version 3
["pdflatex"] 1600265779 "/media/us/Share/HS-Anhalt/S2-Karto/02_Reliefdarstellung/UE5/ue5+6+7_WunderlichM.tex" "/media/us/Share/HS-Anhalt/S2-Karto/02_Reliefdarstellung/UE5/ue5+6+7_WunderlichM.pdf" "ue5+6+7_WunderlichM" 1600265780
  "/etc/texmf/web2c/texmf.cnf" 1572471083 475 c0e671620eb5563b2130f56340a5fde8 ""
  "/media/us/Share/HS-Anhalt/S2-Karto/02_Reliefdarstellung/UE5/ue5+6+7_WunderlichM.aux" 1600265780 5726 b18c5d781eb5527519c9fb6bea58470d ""
  "/media/us/Share/HS-Anhalt/S2-Karto/02_Reliefdarstellung/UE5/ue5+6+7_WunderlichM.tex" 1600265779 7781 b8cbbacd7f721a20700e4a89cb006f2c ""
  "/usr/share/texlive/texmf-dist/fonts/map/fontname/texfonts.map" 1511824771 3332 103109f5612ad95229751940c61aada0 ""
  "/usr/share/texlive/texmf-dist/fonts/tfm/jknappen/ec/ecbx1095.tfm" 1480098696 3584 21b378cca2e40816b0e6d74a4dc98f04 ""
  "/usr/share/texlive/texmf-dist/fonts/tfm/jknappen/ec/ecbx1200.tfm" 1480098696 3584 402da0b29eafbad07963b1224b222f18 ""
  "/usr/share/texlive/texmf-dist/fonts/tfm/jknappen/ec/ecbx1440.tfm" 1480098696 3584 13049b61b922a28b158a38aeff75ee9b ""
  "/usr/share/texlive/texmf-dist/fonts/tfm/jknappen/ec/ecrm1095.tfm" 1480098696 3584 929cdff2b7a8c11bd4d49fd68cb0ae70 ""
  "/usr/share/texlive/texmf-dist/fonts/tfm/jknappen/ec/ecrm1200.tfm" 1480098696 3584 f80ddd985bd00e29e9a6047ebd9d4781 ""
  "/usr/share/texlive/texmf-dist/fonts/tfm/jknappen/ec/ecrm1440.tfm" 1480098696 3584 3169d30142b88a27d4ab0e3468e963a2 ""
  "/usr/share/texlive/texmf-dist/fonts/tfm/jknappen/ec/ecrm1728.tfm" 1480098696 3584 3c76ccb63eda935a68ba65ba9da29f1a ""
  "/usr/share/texlive/texmf-dist/fonts/tfm/public/amsfonts/cmextra/cmex7.tfm" 1480098698 1004 54797486969f23fa377b128694d548df ""
  "/usr/share/texlive/texmf-dist/fonts/tfm/public/amsfonts/cmextra/cmex8.tfm" 1480098698 988 bdf658c3bfc2d96d3c8b02cfc1c94c20 ""
  "/usr/share/texlive/texmf-dist/fonts/tfm/public/amsfonts/symbols/msam10.tfm" 1480098698 916 f87d7c45f9c908e672703b83b72241a3 ""
  "/usr/share/texlive/texmf-dist/fonts/tfm/public/amsfonts/symbols/msam7.tfm" 1480098698 928 2dc8d444221b7a635bb58038579b861a ""
  "/usr/share/texlive/texmf-dist/fonts/tfm/public/amsfonts/symbols/msbm10.tfm" 1480098698 908 2921f8a10601f252058503cc6570e581 ""
  "/usr/share/texlive/texmf-dist/fonts/tfm/public/amsfonts/symbols/msbm7.tfm" 1480098698 940 228d6584342e91276bf566bcf9716b83 ""
  "/usr/share/texlive/texmf-dist/fonts/tfm/public/cm/cmex10.tfm" 1480098701 992 662f679a0b3d2d53c1b94050fdaa3f50 ""
  "/usr/share/texlive/texmf-dist/fonts/tfm/public/cm/cmmi12.tfm" 1480098701 1524 4414a8315f39513458b80dfc63bff03a ""
  "/usr/share/texlive/texmf-dist/fonts/tfm/public/cm/cmmi6.tfm" 1480098701 1512 f21f83efb36853c0b70002322c1ab3ad ""
  "/usr/share/texlive/texmf-dist/fonts/tfm/public/cm/cmmi8.tfm" 1480098701 1520 eccf95517727cb11801f4f1aee3a21b4 ""
  "/usr/share/texlive/texmf-dist/fonts/tfm/public/cm/cmr10.tfm" 1480098701 1296 45809c5a464d5f32c8f98ba97c1bb47f ""
  "/usr/share/texlive/texmf-dist/fonts/tfm/public/cm/cmr12.tfm" 1480098701 1288 655e228510b4c2a1abe905c368440826 ""
  "/usr/share/texlive/texmf-dist/fonts/tfm/public/cm/cmr6.tfm" 1480098701 1300 b62933e007d01cfd073f79b963c01526 ""
  "/usr/share/texlive/texmf-dist/fonts/tfm/public/cm/cmr8.tfm" 1480098701 1292 21c1c5bfeaebccffdb478fd231a0997d ""
  "/usr/share/texlive/texmf-dist/fonts/tfm/public/cm/cmsy10.tfm" 1480098701 1124 6c73e740cf17375f03eec0ee63599741 ""
  "/usr/share/texlive/texmf-dist/fonts/tfm/public/cm/cmsy6.tfm" 1480098701 1116 933a60c408fc0a863a92debe84b2d294 ""
  "/usr/share/texlive/texmf-dist/fonts/tfm/public/cm/cmsy8.tfm" 1480098701 1120 8b7d695260f3cff42e636090a8002094 ""
  "/usr/share/texlive/texmf-dist/fonts/tfm/public/latex-fonts/lasy6.tfm" 1480098711 520 4889cce2180234b97cad636b6039c722 ""
  "/usr/share/texlive/texmf-dist/tex/context/base/mkii/supp-pdf.mkii" 1480098806 71627 94eb9990bed73c364d7f53f960cc8c5b ""
  "/usr/share/texlive/texmf-dist/tex/generic/babel-german/ngerman.ldf" 1480098812 2194 f5fcacc41337b623a640c549d42a2a4d ""
  "/usr/share/texlive/texmf-dist/tex/generic/babel-german/ngermanb.ldf" 1480098812 7200 6f6a9808555813df860e8ea6af93aeda ""
  "/usr/share/texlive/texmf-dist/tex/generic/babel/babel.def" 1518644053 67244 2dce3d67c354c8d92f638d0f8682fb73 ""
  "/usr/share/texlive/texmf-dist/tex/generic/babel/babel.sty" 1518644053 15861 065fe343082d0cd2428cf984d6b2ef66 ""
  "/usr/share/texlive/texmf-dist/tex/generic/babel/switch.def" 1518644053 12523 d80bc74bf5e02fe4304443a6de8d01be ""
  "/usr/share/texlive/texmf-dist/tex/generic/babel/txtbabel.def" 1518644053 7434 1b3955075683beb1c883a0fcf92ed2d5 ""
  "/usr/share/texlive/texmf-dist/tex/generic/ifxetex/ifxetex.sty" 1480098815 1458 43ab4710dc82f3edeabecd0d099626b2 ""
  "/usr/share/texlive/texmf-dist/tex/generic/oberdiek/gettitlestring.sty" 1480098815 8237 3b62ef1f7e2c23a328c814b3893bc11f ""
  "/usr/share/texlive/texmf-dist/tex/generic/oberdiek/hobsub-generic.sty" 1517006633 185082 6c11d4e30ed78e2a12957b7e77030856 ""
  "/usr/share/texlive/texmf-dist/tex/generic/oberdiek/hobsub-hyperref.sty" 1480098815 70864 bcd5b216757bd619ae692a151d90085d ""
  "/usr/share/texlive/texmf-dist/tex/generic/oberdiek/ifpdf.sty" 1490564930 1251 d170e11a3246c3392bc7f59595af42cb ""
  "/usr/share/texlive/texmf-dist/tex/generic/oberdiek/ifvtex.sty" 1480098815 6797 90b7f83b0ad46826bc16058b1e3d48df ""
  "/usr/share/texlive/texmf-dist/tex/generic/ulem/ulem.sty" 1480098819 23756 854c01b779030ff5b2aad88ba7a119f2 ""
  "/usr/share/texlive/texmf-dist/tex/latex/amsfonts/amsfonts.sty" 1480098820 5949 3f3fd50a8cc94c3d4cbf4fc66cd3df1c ""
  "/usr/share/texlive/texmf-dist/tex/latex/amsfonts/amssymb.sty" 1480098820 13829 94730e64147574077f8ecfea9bb69af4 ""
  "/usr/share/texlive/texmf-dist/tex/latex/amsfonts/umsa.fd" 1480098820 961 6518c6525a34feb5e8250ffa91731cff ""
  "/usr/share/texlive/texmf-dist/tex/latex/amsfonts/umsb.fd" 1480098820 961 d02606146ba5601b5645f987c92e6193 ""
  "/usr/share/texlive/texmf-dist/tex/latex/amsmath/amsbsy.sty" 1480098820 2210 5c54ab129b848a5071554186d0168766 ""
  "/usr/share/texlive/texmf-dist/tex/latex/amsmath/amsgen.sty" 1480098820 4160 c115536cf8d4ff25aa8c1c9bc4ecb79a ""
  "/usr/share/texlive/texmf-dist/tex/latex/amsmath/amsmath.sty" 1504905757 84352 897a476d96a0681047a5b0f91178a3d2 ""
  "/usr/share/texlive/texmf-dist/tex/latex/amsmath/amsopn.sty" 1480098820 4115 318a66090112f3aa3f415aeb6fe8540f ""
  "/usr/share/texlive/texmf-dist/tex/latex/amsmath/amstext.sty" 1480098820 2431 fe3078ec12fc30287f568596f8e0b948 ""
  "/usr/share/texlive/texmf-dist/tex/latex/base/article.cls" 1480098821 19821 310da678527a7dfe2a02c88af38079b7 ""
  "/usr/share/texlive/texmf-dist/tex/latex/base/fontenc.sty" 1492297155 4571 13977df0eda144b93597fc709035ad1f ""
  "/usr/share/texlive/texmf-dist/tex/latex/base/inputenc.sty" 1480098821 4732 d63eda807ac82cca2ca8488efd31a966 ""
  "/usr/share/texlive/texmf-dist/tex/latex/base/omsenc.dfu" 1487721667 2004 ac51aeac484f08c01026120d62677eca ""
  "/usr/share/texlive/texmf-dist/tex/latex/base/ot1enc.dfu" 1487721667 3181 1cb3e9ad01f4a01127b2ffd821bfeec7 ""
  "/usr/share/texlive/texmf-dist/tex/latex/base/size11.clo" 1480098821 8308 f91506bb4df6d8527331f7bbeaf0e63c ""
  "/usr/share/texlive/texmf-dist/tex/latex/base/t1enc.def" 1492297155 10006 a90ba4035cf778f32f424e297d92e235 ""
  "/usr/share/texlive/texmf-dist/tex/latex/base/t1enc.dfu" 1487721667 11255 9d97362866549d3d3c994b5f28d1b9b5 ""
  "/usr/share/texlive/texmf-dist/tex/latex/base/utf8.def" 1487721667 7784 325a2a09984cb5c4ff230f9867145ad3 ""
  "/usr/share/texlive/texmf-dist/tex/latex/caption/caption.sty" 1480098823 66233 8b81cfab95a1f8fc2f0f6c89415b087a ""
  "/usr/share/texlive/texmf-dist/tex/latex/caption/caption3.sty" 1480098823 64866 1ea74c5f2d1685881497f021b8f186b2 ""
  "/usr/share/texlive/texmf-dist/tex/latex/enumitem/enumitem.sty" 1480098827 42666 6fa770e3485520a6a5f2ea7d259c8f8d ""
  "/usr/share/texlive/texmf-dist/tex/latex/fancyhdr/fancyhdr.sty" 1498861448 10663 d7fcc0dc4f35e8998b8cfeef8407d37d ""
  "/usr/share/texlive/texmf-dist/tex/latex/float/float.sty" 1480098828 6749 16d2656a1984957e674b149555f1ea1d ""
  "/usr/share/texlive/texmf-dist/tex/latex/geometry/geometry.sty" 1480098829 40502 e003406220954b0716679d7928aedd8a ""
  "/usr/share/texlive/texmf-dist/tex/latex/graphics-cfg/graphics.cfg" 1480098830 1224 978390e9c2234eab29404bc21b268d1e ""
  "/usr/share/texlive/texmf-dist/tex/latex/graphics-def/pdftex.def" 1515537368 17334 520b9b85ad8a2a48eda3f643e27a5179 ""
  "/usr/share/texlive/texmf-dist/tex/latex/graphics/graphics.sty" 1498427532 15275 7d676729b1bedd3e7f3c6717affb366c ""
  "/usr/share/texlive/texmf-dist/tex/latex/graphics/graphicx.sty" 1498427532 9066 649f2ccf62888e3d8c3e57256b70b8e1 ""
  "/usr/share/texlive/texmf-dist/tex/latex/graphics/keyval.sty" 1480098830 2594 d18d5e19aa8239cf867fa670c556d2e9 ""
  "/usr/share/texlive/texmf-dist/tex/latex/graphics/trig.sty" 1480098830 3980 0a268fbfda01e381fa95821ab13b6aee ""
  "/usr/share/texlive/texmf-dist/tex/latex/hyperref/hpdftex.def" 1518041854 51699 9069fc983fff0db91d59a15af144ad62 ""
  "/usr/share/texlive/texmf-dist/tex/latex/hyperref/hyperref.sty" 1518041854 234088 2c849389d62d41c593d9f5176c4116ab ""
  "/usr/share/texlive/texmf-dist/tex/latex/hyperref/nameref.sty" 1480098831 12949 81e4e808884a8f0e276b69410e234656 ""
  "/usr/share/texlive/texmf-dist/tex/latex/hyperref/pd1enc.def" 1518041854 14098 4e70bf396c7c265bd8b0e5cab3fd3d4d ""
  "/usr/share/texlive/texmf-dist/tex/latex/latexconfig/epstopdf-sys.cfg" 1480098833 678 4792914a8f45be57bb98413425e4c7af ""
  "/usr/share/texlive/texmf-dist/tex/latex/latexconfig/hyperref.cfg" 1480098833 235 6031e5765137be07eed51a510b2b8fb7 ""
  "/usr/share/texlive/texmf-dist/tex/latex/oberdiek/auxhook.sty" 1480098836 3834 4363110eb0ef1eb2b71c8fcbcdb6c357 ""
  "/usr/share/texlive/texmf-dist/tex/latex/oberdiek/epstopdf-base.sty" 1480098836 12095 5337833c991d80788a43d3ce26bd1c46 ""
  "/usr/share/texlive/texmf-dist/tex/latex/oberdiek/grfext.sty" 1480098836 7075 2fe3d848bba95f139de11ded085e74aa ""
  "/usr/share/texlive/texmf-dist/tex/latex/oberdiek/kvoptions.sty" 1480098836 22417 1d9df1eb66848aa31b18a593099cf45c ""
  "/usr/share/texlive/texmf-dist/tex/latex/oberdiek/rerunfilecheck.sty" 1480098836 9581 023642318cef9f4677efe364de1e2a27 ""
  "/usr/share/texlive/texmf-dist/tex/latex/titlesec/titlesec.sty" 1480098841 37387 afa86533e532701faf233f3f592c61e0 ""
  "/usr/share/texlive/texmf-dist/tex/latex/url/url.sty" 1480098842 12796 8edb7d69a20b857904dd0ea757c14ec9 ""
  "/usr/share/texlive/texmf-dist/web2c/texmf.cnf" 1520210507 32485 c64754543d8ac501bea6e75e209ea521 ""
  "/usr/share/texmf/fonts/enc/dvips/cm-super/cm-super-t1.enc" 1497858081 2971 def0b6c1f0b107b3b936def894055589 ""
  "/usr/share/texmf/fonts/type1/public/cm-super/sfbx1095.pfb" 1572471093 154600 ea54091d31de803b613ba9e80ca51709 ""
  "/usr/share/texmf/fonts/type1/public/cm-super/sfbx1200.pfb" 1572471093 140176 d4962f948b4cc0adf4d3dde77a128c95 ""
  "/usr/share/texmf/fonts/type1/public/cm-super/sfbx1440.pfb" 1572471093 135942 859a90cad7494a1e79c94baf546d7de5 ""
  "/usr/share/texmf/fonts/type1/public/cm-super/sfrm1095.pfb" 1572471093 145929 f25e56369a345c4ff583b067cd87ce8e ""
  "/usr/share/texmf/fonts/type1/public/cm-super/sfrm1200.pfb" 1572471093 136101 f533469f523533d38317ab5729d00c8a ""
  "/usr/share/texmf/fonts/type1/public/cm-super/sfrm1728.pfb" 1572471093 131438 3aa300b3e40e5c8ba7b4e5c6cebc5dd6 ""
  "/usr/share/texmf/web2c/texmf.cnf" 1520210507 32485 c64754543d8ac501bea6e75e209ea521 ""
  "/var/lib/texmf/fonts/map/pdftex/updmap/pdftex.map" 1572471119 2700761 ac0584cc9514ab21918550a6948c4ee2 ""
  "/var/lib/texmf/web2c/pdftex/pdflatex.fmt" 1572471151 4126148 9fae6d178cf113a6803eac8885fff965 ""
  "inc/5_9.jpg" 1600264713 73742 5a6b3878a1631ac3eba424a21e3029a7 ""
  "inc/7_2+3.jpg" 1600262458 100343 46cc9c5c1c8c586ad90994d4a3653c9a ""
  "inc/7_2.jpg" 1600262506 94164 6ded08b680de60a53ab70563c4212e13 ""
  "inc/7_3+6.jpg" 1600262286 99354 302c6596f9ade4df8f716a2f314785c9 ""
  "inc/7_3+8.jpg" 1600262300 91388 dcdc61f945e85e3eedca61ce072d2324 ""
  "inc/7_3.jpg" 1600262491 54118 f52e4e23dc421b04bc162371bf00a696 ""
  "inc/7_4.jpg" 1600262546 69383 410cb36b8d572194f310b0dfa15ae9be ""
  "inc/7_44+6.jpg" 1600262353 82342 a13605895a746c3a4e368d3d5f9b3d09 ""
  "inc/7_5+8.jpg" 1600262402 80223 8df8afa4071f0cf7957e5339973a3260 ""
  "inc/7_5.jpg" 1600262515 79812 9bdebbf96efdd2e776096c01c7940f7b ""
  "inc/7_6.jpg" 1600262470 85551 83c72c14817044b2d62e79305c381a4f ""
  "inc/7_8.jpg" 1600262481 78598 cb7da427a2c801dfbd82c9d9fa7dbcfe ""
  "inc/Ue6.png" 1600264266 1028750 74f8629fa15bafd81349bf1a973d622e ""
  "ue5+6+7_WunderlichM.aux" 1600265780 5726 b18c5d781eb5527519c9fb6bea58470d ""
  "ue5+6+7_WunderlichM.out" 1600265780 1937 96620bdd88a95b0d06833d4dd5ff1eff ""
  "ue5+6+7_WunderlichM.tex" 1600265779 7781 b8cbbacd7f721a20700e4a89cb006f2c ""
  (generated)
  "/media/us/Share/HS-Anhalt/S2-Karto/02_Reliefdarstellung/UE5/ue5+6+7_WunderlichM.pdf"
  "/media/us/Share/HS-Anhalt/S2-Karto/02_Reliefdarstellung/UE5/ue5+6+7_WunderlichM.log"
  "ue5+6+7_WunderlichM.aux"
  "ue5+6+7_WunderlichM.out"
  "ue5+6+7_WunderlichM.log"
  "ue5+6+7_WunderlichM.pdf"
