\relax 
\providecommand\hyper@newdestlabel[2]{}
\catcode `"\active 
\bibstyle{unsrt}
\providecommand\HyperFirstAtBeginDocument{\AtBeginDocument}
\HyperFirstAtBeginDocument{\ifx\hyper@anchor\@undefined
\global\let\oldcontentsline\contentsline
\gdef\contentsline#1#2#3#4{\oldcontentsline{#1}{#2}{#3}}
\global\let\oldnewlabel\newlabel
\gdef\newlabel#1#2{\newlabelxx{#1}#2}
\gdef\newlabelxx#1#2#3#4#5#6{\oldnewlabel{#1}{{#2}{#3}}}
\AtEndDocument{\ifx\hyper@anchor\@undefined
\let\contentsline\oldcontentsline
\let\newlabel\oldnewlabel
\fi}
\fi}
\global\let\hyper@last\relax 
\gdef\HyperFirstAtBeginDocument#1{#1}
\providecommand\HyField@AuxAddToFields[1]{}
\providecommand\HyField@AuxAddToCoFields[2]{}
\babel@aux{ngerman}{}
\@writefile{toc}{\contentsline {section}{\numberline {1}\IeC {\"U}bung 9}{1}{section.1}}
\@writefile{toc}{\contentsline {subsection}{\numberline {1.1}Vor\IeC {\"u}berlegungen}{1}{subsection.1.1}}
\@writefile{toc}{\contentsline {subsection}{\numberline {1.2}Datengrundlage}{1}{subsection.1.2}}
\@writefile{lof}{\contentsline {figure}{\numberline {1}{\ignorespaces Auswahl der Grundkarte\relax }}{1}{figure.caption.1}}
\providecommand*\caption@xref[2]{\@setref\relax\@undefined{#1}}
\newlabel{Proj}{{1}{1}{Auswahl der Grundkarte\relax }{figure.caption.1}{}}
\@writefile{toc}{\contentsline {subsection}{\numberline {1.3}Datenaufbereitung}{2}{subsection.1.3}}
\@writefile{lof}{\contentsline {figure}{\numberline {2}{\ignorespaces \IeC {\"A}ndern des Koordinatensystems des Datenrahmens\relax }}{2}{figure.caption.2}}
\newlabel{Proj}{{2}{2}{Ändern des Koordinatensystems des Datenrahmens\relax }{figure.caption.2}{}}
\@writefile{toc}{\contentsline {subsection}{\numberline {1.4}H\IeC {\"o}henschichtendarstellung}{2}{subsection.1.4}}
\@writefile{lof}{\contentsline {figure}{\numberline {3}{\ignorespaces Klassifizierung als Definiertes Intervall\relax }}{3}{figure.caption.3}}
\newlabel{Klassifizierung}{{3}{3}{Klassifizierung als Definiertes Intervall\relax }{figure.caption.3}{}}
\@writefile{lof}{\contentsline {figure}{\numberline {4}{\ignorespaces Layereigenschaften -> Symbolisierung\relax }}{3}{figure.caption.3}}
\newlabel{LayerEigenschaften}{{4}{3}{Layereigenschaften -> Symbolisierung\relax }{figure.caption.3}{}}
\@writefile{toc}{\contentsline {subsection}{\numberline {1.5}Schr\IeC {\"a}glichtschummerung}{3}{subsection.1.5}}
\@writefile{lof}{\contentsline {figure}{\numberline {5}{\ignorespaces Werkzeug: Schummerung\relax }}{3}{figure.caption.4}}
\newlabel{Klassifizierung}{{5}{3}{Werkzeug: Schummerung\relax }{figure.caption.4}{}}
\@writefile{toc}{\contentsline {subsection}{\numberline {1.6}Legende}{3}{subsection.1.6}}
\@writefile{lof}{\contentsline {figure}{\numberline {6}{\ignorespaces Legende\relax }}{4}{figure.caption.5}}
\newlabel{Klassifizierung}{{6}{4}{Legende\relax }{figure.caption.5}{}}
\@writefile{toc}{\contentsline {subsection}{\numberline {1.7}Aufarbeitung PDF-Export}{4}{subsection.1.7}}
\@writefile{lof}{\contentsline {figure}{\numberline {7}{\ignorespaces \IeC {\"U}bersicht des Inhaltsverzeichnis\relax }}{4}{figure.caption.6}}
\newlabel{Inhaltsverzeichnis}{{7}{4}{Übersicht des Inhaltsverzeichnis\relax }{figure.caption.6}{}}
\@writefile{lof}{\contentsline {figure}{\numberline {8}{\ignorespaces Ebenen\IeC {\"u}bersicht innerhalb Adobe Acrobat\relax }}{4}{figure.caption.6}}
\newlabel{Adobe}{{8}{4}{Ebenenübersicht innerhalb Adobe Acrobat\relax }{figure.caption.6}{}}
