\relax 
\providecommand\hyper@newdestlabel[2]{}
\catcode `"\active 
\bibstyle{unsrt}
\providecommand\HyperFirstAtBeginDocument{\AtBeginDocument}
\HyperFirstAtBeginDocument{\ifx\hyper@anchor\@undefined
\global\let\oldcontentsline\contentsline
\gdef\contentsline#1#2#3#4{\oldcontentsline{#1}{#2}{#3}}
\global\let\oldnewlabel\newlabel
\gdef\newlabel#1#2{\newlabelxx{#1}#2}
\gdef\newlabelxx#1#2#3#4#5#6{\oldnewlabel{#1}{{#2}{#3}}}
\AtEndDocument{\ifx\hyper@anchor\@undefined
\let\contentsline\oldcontentsline
\let\newlabel\oldnewlabel
\fi}
\fi}
\global\let\hyper@last\relax 
\gdef\HyperFirstAtBeginDocument#1{#1}
\providecommand\HyField@AuxAddToFields[1]{}
\providecommand\HyField@AuxAddToCoFields[2]{}
\babel@aux{ngerman}{}
\@writefile{toc}{\contentsline {section}{\numberline {1}Gestufte Signaturen}{1}{section.1}}
\@writefile{lof}{\contentsline {figure}{\numberline {1}{\ignorespaces Symbolisierung des Layers\relax }}{1}{figure.caption.1}}
\@writefile{lof}{\contentsline {figure}{\numberline {2}{\ignorespaces \IeC {\"U}berlagerung der Symbole durch sich selbst und Beschriftungen\relax }}{1}{figure.caption.2}}
\@writefile{toc}{\contentsline {section}{\numberline {2}Proportionale Methode}{2}{section.2}}
\@writefile{lof}{\contentsline {figure}{\numberline {3}{\ignorespaces Symbolisierung des Layers\relax }}{2}{figure.caption.3}}
\@writefile{lof}{\contentsline {figure}{\numberline {4}{\ignorespaces unpassende Platzierung der Balken/S\IeC {\"a}ulen\relax }}{2}{figure.caption.4}}
\@writefile{toc}{\contentsline {section}{\numberline {3}Kleingeldmethode}{2}{section.3}}
