\relax 
\providecommand\hyper@newdestlabel[2]{}
\catcode `"\active 
\bibstyle{unsrt}
\providecommand\HyperFirstAtBeginDocument{\AtBeginDocument}
\HyperFirstAtBeginDocument{\ifx\hyper@anchor\@undefined
\global\let\oldcontentsline\contentsline
\gdef\contentsline#1#2#3#4{\oldcontentsline{#1}{#2}{#3}}
\global\let\oldnewlabel\newlabel
\gdef\newlabel#1#2{\newlabelxx{#1}#2}
\gdef\newlabelxx#1#2#3#4#5#6{\oldnewlabel{#1}{{#2}{#3}}}
\AtEndDocument{\ifx\hyper@anchor\@undefined
\let\contentsline\oldcontentsline
\let\newlabel\oldnewlabel
\fi}
\fi}
\global\let\hyper@last\relax 
\gdef\HyperFirstAtBeginDocument#1{#1}
\providecommand\HyField@AuxAddToFields[1]{}
\providecommand\HyField@AuxAddToCoFields[2]{}
\babel@aux{ngerman}{}
\@writefile{toc}{\contentsline {section}{\numberline {1}\IeC {\"U}bung 9}{1}{section.1}}
\@writefile{toc}{\contentsline {subsection}{\numberline {1.1}Vor\IeC {\"u}berlegungen}{1}{subsection.1.1}}
\@writefile{lof}{\contentsline {figure}{\numberline {1}{\ignorespaces Oberfl\IeC {\"a}che des Earth Explorer mit ausgew\IeC {\"a}hlten Datensatz.\relax }}{1}{figure.caption.1}}
\@writefile{toc}{\contentsline {subsection}{\numberline {1.2}Vorgehensweise in ArcGIS Pro}{1}{subsection.1.2}}
\@writefile{lof}{\contentsline {figure}{\numberline {2}{\ignorespaces Kartenausschnitt des Gebiets mit Basiskarte\relax }}{2}{figure.caption.2}}
\providecommand*\caption@xref[2]{\@setref\relax\@undefined{#1}}
\newlabel{Karte1}{{2}{2}{Kartenausschnitt des Gebiets mit Basiskarte\relax }{figure.caption.2}{}}
\@writefile{lof}{\contentsline {figure}{\numberline {3}{\ignorespaces Visualisierung der SRTM-Daten mit Verlauf\relax }}{2}{figure.caption.3}}
\newlabel{Karte2}{{3}{2}{Visualisierung der SRTM-Daten mit Verlauf\relax }{figure.caption.3}{}}
\@writefile{lof}{\contentsline {figure}{\numberline {4}{\ignorespaces Raster projizieren zu ``WGS 1984 UTM Zone 32N''\relax }}{3}{figure.caption.4}}
\newlabel{Proj}{{4}{3}{Raster projizieren zu ``WGS 1984 UTM Zone 32N''\relax }{figure.caption.4}{}}
\@writefile{lof}{\contentsline {figure}{\numberline {5}{\ignorespaces herk\IeC {\"o}mmliche Schummerung\relax }}{3}{figure.caption.5}}
\newlabel{Proj}{{5}{3}{herkömmliche Schummerung\relax }{figure.caption.5}{}}
\@writefile{lof}{\contentsline {figure}{\numberline {6}{\ignorespaces multidirektionale Schummerung\relax }}{3}{figure.caption.5}}
\newlabel{Proj}{{6}{3}{multidirektionale Schummerung\relax }{figure.caption.5}{}}
\newlabel{vergleich}{{1.2}{3}{Vorgehensweise in ArcGIS Pro}{figure.caption.5}{}}
\@writefile{lof}{\contentsline {figure}{\numberline {7}{\ignorespaces Vergleich der beiden Schummerungen\newline  links herk\IeC {\"o}mmliche Schummerung und rechts die multidirektionale\relax }}{4}{figure.caption.6}}
\newlabel{vergleich}{{7}{4}{Vergleich der beiden Schummerungen\newline links herkömmliche Schummerung und rechts die multidirektionale\relax }{figure.caption.6}{}}
