PWD /media/us/Share/HS-Anhalt/S2-Karto/03_Generalisierung/ue10
INPUT /etc/texmf/web2c/texmf.cnf
INPUT /usr/share/texmf/web2c/texmf.cnf
INPUT /usr/share/texlive/texmf-dist/web2c/texmf.cnf
INPUT /var/lib/texmf/web2c/pdftex/pdflatex.fmt
INPUT /media/us/Share/HS-Anhalt/S2-Karto/03_Generalisierung/ue10/ue10_WunderlichM.tex
OUTPUT /media/us/Share/HS-Anhalt/S2-Karto/03_Generalisierung/ue10/ue10_WunderlichM.log
INPUT /usr/share/texlive/texmf-dist/tex/latex/base/article.cls
INPUT /usr/share/texlive/texmf-dist/tex/latex/base/article.cls
INPUT /usr/share/texlive/texmf-dist/tex/latex/base/size11.clo
INPUT /usr/share/texlive/texmf-dist/tex/latex/base/size11.clo
INPUT /usr/share/texlive/texmf-dist/fonts/map/fontname/texfonts.map
INPUT /usr/share/texlive/texmf-dist/fonts/tfm/public/cm/cmr10.tfm
INPUT /usr/share/texlive/texmf-dist/tex/latex/geometry/geometry.sty
INPUT /usr/share/texlive/texmf-dist/tex/latex/geometry/geometry.sty
INPUT /usr/share/texlive/texmf-dist/tex/latex/graphics/keyval.sty
INPUT /usr/share/texlive/texmf-dist/tex/latex/graphics/keyval.sty
INPUT /usr/share/texlive/texmf-dist/tex/generic/oberdiek/ifpdf.sty
INPUT /usr/share/texlive/texmf-dist/tex/generic/oberdiek/ifpdf.sty
INPUT /usr/share/texlive/texmf-dist/tex/generic/oberdiek/ifvtex.sty
INPUT /usr/share/texlive/texmf-dist/tex/generic/oberdiek/ifvtex.sty
INPUT /usr/share/texlive/texmf-dist/tex/generic/ifxetex/ifxetex.sty
INPUT /usr/share/texlive/texmf-dist/tex/generic/ifxetex/ifxetex.sty
INPUT /usr/share/texlive/texmf-dist/tex/latex/base/inputenc.sty
INPUT /usr/share/texlive/texmf-dist/tex/latex/base/inputenc.sty
INPUT /usr/share/texlive/texmf-dist/tex/latex/base/utf8.def
INPUT /usr/share/texlive/texmf-dist/tex/latex/base/utf8.def
INPUT /usr/share/texlive/texmf-dist/tex/latex/base/t1enc.dfu
INPUT /usr/share/texlive/texmf-dist/tex/latex/base/t1enc.dfu
INPUT /usr/share/texlive/texmf-dist/tex/latex/base/ot1enc.dfu
INPUT /usr/share/texlive/texmf-dist/tex/latex/base/ot1enc.dfu
INPUT /usr/share/texlive/texmf-dist/tex/latex/base/omsenc.dfu
INPUT /usr/share/texlive/texmf-dist/tex/latex/base/omsenc.dfu
INPUT /usr/share/texlive/texmf-dist/tex/generic/babel/babel.sty
INPUT /usr/share/texlive/texmf-dist/tex/generic/babel/babel.sty
INPUT /usr/share/texlive/texmf-dist/tex/generic/babel/switch.def
INPUT /usr/share/texlive/texmf-dist/tex/generic/babel-german/ngerman.ldf
INPUT /usr/share/texlive/texmf-dist/tex/generic/babel-german/ngerman.ldf
INPUT /usr/share/texlive/texmf-dist/tex/generic/babel-german/ngermanb.ldf
INPUT /usr/share/texlive/texmf-dist/tex/generic/babel/babel.def
INPUT /usr/share/texlive/texmf-dist/tex/generic/babel/txtbabel.def
INPUT /usr/share/texlive/texmf-dist/tex/latex/base/fontenc.sty
INPUT /usr/share/texlive/texmf-dist/tex/latex/base/fontenc.sty
INPUT /usr/share/texlive/texmf-dist/tex/latex/base/t1enc.def
INPUT /usr/share/texlive/texmf-dist/tex/latex/base/t1enc.def
INPUT /usr/share/texlive/texmf-dist/fonts/tfm/jknappen/ec/ecrm1095.tfm
INPUT /usr/share/texlive/texmf-dist/tex/latex/amsmath/amsmath.sty
INPUT /usr/share/texlive/texmf-dist/tex/latex/amsmath/amsmath.sty
INPUT /usr/share/texlive/texmf-dist/tex/latex/amsmath/amstext.sty
INPUT /usr/share/texlive/texmf-dist/tex/latex/amsmath/amstext.sty
INPUT /usr/share/texlive/texmf-dist/tex/latex/amsmath/amsgen.sty
INPUT /usr/share/texlive/texmf-dist/tex/latex/amsmath/amsgen.sty
INPUT /usr/share/texlive/texmf-dist/tex/latex/amsmath/amsbsy.sty
INPUT /usr/share/texlive/texmf-dist/tex/latex/amsmath/amsbsy.sty
INPUT /usr/share/texlive/texmf-dist/tex/latex/amsmath/amsopn.sty
INPUT /usr/share/texlive/texmf-dist/tex/latex/amsmath/amsopn.sty
INPUT /usr/share/texlive/texmf-dist/tex/latex/graphics/graphicx.sty
INPUT /usr/share/texlive/texmf-dist/tex/latex/graphics/graphicx.sty
INPUT /usr/share/texlive/texmf-dist/tex/latex/graphics/graphics.sty
INPUT /usr/share/texlive/texmf-dist/tex/latex/graphics/graphics.sty
INPUT /usr/share/texlive/texmf-dist/tex/latex/graphics/trig.sty
INPUT /usr/share/texlive/texmf-dist/tex/latex/graphics/trig.sty
INPUT /usr/share/texlive/texmf-dist/tex/latex/graphics-cfg/graphics.cfg
INPUT /usr/share/texlive/texmf-dist/tex/latex/graphics-cfg/graphics.cfg
INPUT /usr/share/texlive/texmf-dist/tex/latex/graphics-def/pdftex.def
INPUT /usr/share/texlive/texmf-dist/tex/latex/graphics-def/pdftex.def
INPUT /usr/share/texlive/texmf-dist/tex/latex/caption/caption.sty
INPUT /usr/share/texlive/texmf-dist/tex/latex/caption/caption.sty
INPUT /usr/share/texlive/texmf-dist/tex/latex/caption/caption3.sty
INPUT /usr/share/texlive/texmf-dist/tex/latex/caption/caption3.sty
INPUT /usr/share/texlive/texmf-dist/tex/latex/enumitem/enumitem.sty
INPUT /usr/share/texlive/texmf-dist/tex/latex/enumitem/enumitem.sty
INPUT /usr/share/texlive/texmf-dist/tex/latex/float/float.sty
INPUT /usr/share/texlive/texmf-dist/tex/latex/float/float.sty
INPUT /usr/share/texlive/texmf-dist/tex/latex/amsfonts/amssymb.sty
INPUT /usr/share/texlive/texmf-dist/tex/latex/amsfonts/amssymb.sty
INPUT /usr/share/texlive/texmf-dist/tex/latex/amsfonts/amsfonts.sty
INPUT /usr/share/texlive/texmf-dist/tex/latex/amsfonts/amsfonts.sty
INPUT /usr/share/texlive/texmf-dist/tex/latex/url/url.sty
INPUT /usr/share/texlive/texmf-dist/tex/latex/url/url.sty
INPUT /usr/share/texlive/texmf-dist/tex/latex/fancyhdr/fancyhdr.sty
INPUT /usr/share/texlive/texmf-dist/tex/latex/fancyhdr/fancyhdr.sty
INPUT /usr/share/texlive/texmf-dist/tex/generic/ulem/ulem.sty
INPUT /usr/share/texlive/texmf-dist/tex/generic/ulem/ulem.sty
INPUT /usr/share/texlive/texmf-dist/fonts/tfm/public/latex-fonts/lasy6.tfm
INPUT /usr/share/texlive/texmf-dist/tex/latex/titlesec/titlesec.sty
INPUT /usr/share/texlive/texmf-dist/tex/latex/titlesec/titlesec.sty
INPUT /usr/share/texlive/texmf-dist/tex/latex/hyperref/hyperref.sty
INPUT /usr/share/texlive/texmf-dist/tex/latex/hyperref/hyperref.sty
INPUT /usr/share/texlive/texmf-dist/tex/generic/oberdiek/hobsub-hyperref.sty
INPUT /usr/share/texlive/texmf-dist/tex/generic/oberdiek/hobsub-hyperref.sty
INPUT /usr/share/texlive/texmf-dist/tex/generic/oberdiek/hobsub-hyperref.sty
INPUT /usr/share/texlive/texmf-dist/tex/generic/oberdiek/hobsub-generic.sty
INPUT /usr/share/texlive/texmf-dist/tex/generic/oberdiek/hobsub-generic.sty
INPUT /usr/share/texlive/texmf-dist/tex/latex/oberdiek/auxhook.sty
INPUT /usr/share/texlive/texmf-dist/tex/latex/oberdiek/auxhook.sty
INPUT /usr/share/texlive/texmf-dist/tex/latex/oberdiek/kvoptions.sty
INPUT /usr/share/texlive/texmf-dist/tex/latex/oberdiek/kvoptions.sty
INPUT /usr/share/texlive/texmf-dist/tex/latex/hyperref/pd1enc.def
INPUT /usr/share/texlive/texmf-dist/tex/latex/hyperref/pd1enc.def
INPUT /usr/share/texlive/texmf-dist/tex/latex/latexconfig/hyperref.cfg
INPUT /usr/share/texlive/texmf-dist/tex/latex/latexconfig/hyperref.cfg
INPUT /usr/share/texlive/texmf-dist/tex/latex/hyperref/hpdftex.def
INPUT /usr/share/texlive/texmf-dist/tex/latex/hyperref/hpdftex.def
INPUT /usr/share/texlive/texmf-dist/tex/latex/oberdiek/rerunfilecheck.sty
INPUT /usr/share/texlive/texmf-dist/tex/latex/oberdiek/rerunfilecheck.sty
INPUT /media/us/Share/HS-Anhalt/S2-Karto/03_Generalisierung/ue10/ue10_WunderlichM.aux
INPUT /media/us/Share/HS-Anhalt/S2-Karto/03_Generalisierung/ue10/ue10_WunderlichM.aux
OUTPUT /media/us/Share/HS-Anhalt/S2-Karto/03_Generalisierung/ue10/ue10_WunderlichM.aux
INPUT /usr/share/texlive/texmf-dist/tex/context/base/mkii/supp-pdf.mkii
INPUT /usr/share/texlive/texmf-dist/tex/context/base/mkii/supp-pdf.mkii
INPUT /usr/share/texlive/texmf-dist/tex/latex/oberdiek/epstopdf-base.sty
INPUT /usr/share/texlive/texmf-dist/tex/latex/oberdiek/epstopdf-base.sty
INPUT /usr/share/texlive/texmf-dist/tex/latex/oberdiek/grfext.sty
INPUT /usr/share/texlive/texmf-dist/tex/latex/oberdiek/grfext.sty
INPUT /usr/share/texlive/texmf-dist/tex/latex/latexconfig/epstopdf-sys.cfg
INPUT /usr/share/texlive/texmf-dist/tex/latex/latexconfig/epstopdf-sys.cfg
INPUT /usr/share/texlive/texmf-dist/tex/latex/hyperref/nameref.sty
INPUT /usr/share/texlive/texmf-dist/tex/latex/hyperref/nameref.sty
INPUT /usr/share/texlive/texmf-dist/tex/generic/oberdiek/gettitlestring.sty
INPUT /usr/share/texlive/texmf-dist/tex/generic/oberdiek/gettitlestring.sty
INPUT /media/us/Share/HS-Anhalt/S2-Karto/03_Generalisierung/ue10/ue10_WunderlichM.out
INPUT /media/us/Share/HS-Anhalt/S2-Karto/03_Generalisierung/ue10/ue10_WunderlichM.out
INPUT /media/us/Share/HS-Anhalt/S2-Karto/03_Generalisierung/ue10/ue10_WunderlichM.out
INPUT /media/us/Share/HS-Anhalt/S2-Karto/03_Generalisierung/ue10/ue10_WunderlichM.out
OUTPUT /media/us/Share/HS-Anhalt/S2-Karto/03_Generalisierung/ue10/ue10_WunderlichM.pdf
INPUT /media/us/Share/HS-Anhalt/S2-Karto/03_Generalisierung/ue10/ue10_WunderlichM.out
INPUT /media/us/Share/HS-Anhalt/S2-Karto/03_Generalisierung/ue10/ue10_WunderlichM.out
OUTPUT /media/us/Share/HS-Anhalt/S2-Karto/03_Generalisierung/ue10/ue10_WunderlichM.out
INPUT /usr/share/texlive/texmf-dist/fonts/tfm/jknappen/ec/ecrm1728.tfm
INPUT /usr/share/texlive/texmf-dist/fonts/tfm/jknappen/ec/ecrm1200.tfm
INPUT /usr/share/texlive/texmf-dist/fonts/tfm/public/cm/cmr12.tfm
INPUT /usr/share/texlive/texmf-dist/fonts/tfm/public/cm/cmr8.tfm
INPUT /usr/share/texlive/texmf-dist/fonts/tfm/public/cm/cmr6.tfm
INPUT /usr/share/texlive/texmf-dist/fonts/tfm/public/cm/cmmi12.tfm
INPUT /usr/share/texlive/texmf-dist/fonts/tfm/public/cm/cmmi8.tfm
INPUT /usr/share/texlive/texmf-dist/fonts/tfm/public/cm/cmmi6.tfm
INPUT /usr/share/texlive/texmf-dist/fonts/tfm/public/cm/cmsy10.tfm
INPUT /usr/share/texlive/texmf-dist/fonts/tfm/public/cm/cmsy8.tfm
INPUT /usr/share/texlive/texmf-dist/fonts/tfm/public/cm/cmsy6.tfm
INPUT /usr/share/texlive/texmf-dist/fonts/tfm/public/cm/cmex10.tfm
INPUT /usr/share/texlive/texmf-dist/fonts/tfm/public/amsfonts/cmextra/cmex8.tfm
INPUT /usr/share/texlive/texmf-dist/fonts/tfm/public/amsfonts/cmextra/cmex7.tfm
INPUT /usr/share/texlive/texmf-dist/tex/latex/amsfonts/umsa.fd
INPUT /usr/share/texlive/texmf-dist/tex/latex/amsfonts/umsa.fd
INPUT /usr/share/texlive/texmf-dist/fonts/tfm/public/amsfonts/symbols/msam10.tfm
INPUT /usr/share/texlive/texmf-dist/fonts/tfm/public/amsfonts/symbols/msam10.tfm
INPUT /usr/share/texlive/texmf-dist/fonts/tfm/public/amsfonts/symbols/msam7.tfm
INPUT /usr/share/texlive/texmf-dist/tex/latex/amsfonts/umsb.fd
INPUT /usr/share/texlive/texmf-dist/tex/latex/amsfonts/umsb.fd
INPUT /usr/share/texlive/texmf-dist/fonts/tfm/public/amsfonts/symbols/msbm10.tfm
INPUT /usr/share/texlive/texmf-dist/fonts/tfm/public/amsfonts/symbols/msbm10.tfm
INPUT /usr/share/texlive/texmf-dist/fonts/tfm/public/amsfonts/symbols/msbm7.tfm
INPUT /usr/share/texlive/texmf-dist/fonts/tfm/jknappen/ec/ecrm1440.tfm
INPUT /usr/share/texlive/texmf-dist/fonts/tfm/jknappen/ec/ecbx1440.tfm
INPUT /usr/share/texlive/texmf-dist/fonts/tfm/jknappen/ec/ecbx1200.tfm
INPUT /usr/share/texlive/texmf-dist/fonts/tfm/jknappen/ec/ecbx1095.tfm
INPUT /media/us/Share/HS-Anhalt/S2-Karto/03_Generalisierung/ue10/inc/Boden.jpg
INPUT /media/us/Share/HS-Anhalt/S2-Karto/03_Generalisierung/ue10/inc/Boden.jpg
INPUT /media/us/Share/HS-Anhalt/S2-Karto/03_Generalisierung/ue10/inc/Boden.jpg
INPUT /media/us/Share/HS-Anhalt/S2-Karto/03_Generalisierung/ue10/inc/Kursaal.jpg
INPUT /media/us/Share/HS-Anhalt/S2-Karto/03_Generalisierung/ue10/inc/Kursaal.jpg
INPUT /media/us/Share/HS-Anhalt/S2-Karto/03_Generalisierung/ue10/inc/Kursaal.jpg
INPUT /var/lib/texmf/fonts/map/pdftex/updmap/pdftex.map
INPUT /media/us/Share/HS-Anhalt/S2-Karto/03_Generalisierung/ue10/inc/Corona.jpg
INPUT /media/us/Share/HS-Anhalt/S2-Karto/03_Generalisierung/ue10/inc/Corona.jpg
INPUT /media/us/Share/HS-Anhalt/S2-Karto/03_Generalisierung/ue10/inc/Corona.jpg
INPUT /usr/share/texlive/texmf-dist/tex/latex/base/t1cmtt.fd
INPUT /usr/share/texlive/texmf-dist/tex/latex/base/t1cmtt.fd
INPUT /usr/share/texlive/texmf-dist/fonts/tfm/jknappen/ec/ectt1095.tfm
INPUT /usr/share/texlive/texmf-dist/fonts/tfm/public/cm/cmmi10.tfm
INPUT /usr/share/texlive/texmf-dist/fonts/tfm/public/cm/cmsy10.tfm
INPUT /usr/share/texlive/texmf-dist/fonts/tfm/public/cm/cmex10.tfm
INPUT /usr/share/texlive/texmf-dist/fonts/tfm/public/amsfonts/symbols/msam10.tfm
INPUT /usr/share/texlive/texmf-dist/fonts/tfm/public/amsfonts/symbols/msbm10.tfm
INPUT /media/us/Share/HS-Anhalt/S2-Karto/03_Generalisierung/ue10/inc/Karte1.jpg
INPUT /media/us/Share/HS-Anhalt/S2-Karto/03_Generalisierung/ue10/inc/Karte1.jpg
INPUT /media/us/Share/HS-Anhalt/S2-Karto/03_Generalisierung/ue10/inc/Karte1.jpg
INPUT /media/us/Share/HS-Anhalt/S2-Karto/03_Generalisierung/ue10/inc/Karte2.jpg
INPUT /media/us/Share/HS-Anhalt/S2-Karto/03_Generalisierung/ue10/inc/Karte2.jpg
INPUT /media/us/Share/HS-Anhalt/S2-Karto/03_Generalisierung/ue10/inc/Karte2.jpg
INPUT /media/us/Share/HS-Anhalt/S2-Karto/03_Generalisierung/ue10/inc/VergleichGrossMittel.jpg
INPUT /media/us/Share/HS-Anhalt/S2-Karto/03_Generalisierung/ue10/inc/VergleichGrossMittel.jpg
INPUT /media/us/Share/HS-Anhalt/S2-Karto/03_Generalisierung/ue10/inc/VergleichGrossMittel.jpg
INPUT /media/us/Share/HS-Anhalt/S2-Karto/03_Generalisierung/ue10/inc/Kaserne.jpg
INPUT /media/us/Share/HS-Anhalt/S2-Karto/03_Generalisierung/ue10/inc/Kaserne.jpg
INPUT /media/us/Share/HS-Anhalt/S2-Karto/03_Generalisierung/ue10/inc/Kaserne.jpg
INPUT /media/us/Share/HS-Anhalt/S2-Karto/03_Generalisierung/ue10/inc/Karte3.jpg
INPUT /media/us/Share/HS-Anhalt/S2-Karto/03_Generalisierung/ue10/inc/Karte3.jpg
INPUT /media/us/Share/HS-Anhalt/S2-Karto/03_Generalisierung/ue10/inc/Karte3.jpg
INPUT /media/us/Share/HS-Anhalt/S2-Karto/03_Generalisierung/ue10/ue10_WunderlichM.aux
INPUT /media/us/Share/HS-Anhalt/S2-Karto/03_Generalisierung/ue10/ue10_WunderlichM.out
INPUT /media/us/Share/HS-Anhalt/S2-Karto/03_Generalisierung/ue10/ue10_WunderlichM.out
INPUT /usr/share/texmf/fonts/enc/dvips/cm-super/cm-super-t1.enc
INPUT /usr/share/texmf/fonts/type1/public/cm-super/sfbx1095.pfb
INPUT /usr/share/texmf/fonts/type1/public/cm-super/sfbx1200.pfb
INPUT /usr/share/texmf/fonts/type1/public/cm-super/sfbx1440.pfb
INPUT /usr/share/texmf/fonts/type1/public/cm-super/sfrm1095.pfb
INPUT /usr/share/texmf/fonts/type1/public/cm-super/sfrm1200.pfb
INPUT /usr/share/texmf/fonts/type1/public/cm-super/sfrm1728.pfb
INPUT /usr/share/texmf/fonts/type1/public/cm-super/sftt1095.pfb
