\relax 
\providecommand\hyper@newdestlabel[2]{}
\catcode `"\active 
\bibstyle{unsrt}
\providecommand\HyperFirstAtBeginDocument{\AtBeginDocument}
\HyperFirstAtBeginDocument{\ifx\hyper@anchor\@undefined
\global\let\oldcontentsline\contentsline
\gdef\contentsline#1#2#3#4{\oldcontentsline{#1}{#2}{#3}}
\global\let\oldnewlabel\newlabel
\gdef\newlabel#1#2{\newlabelxx{#1}#2}
\gdef\newlabelxx#1#2#3#4#5#6{\oldnewlabel{#1}{{#2}{#3}}}
\AtEndDocument{\ifx\hyper@anchor\@undefined
\let\contentsline\oldcontentsline
\let\newlabel\oldnewlabel
\fi}
\fi}
\global\let\hyper@last\relax 
\gdef\HyperFirstAtBeginDocument#1{#1}
\providecommand\HyField@AuxAddToFields[1]{}
\providecommand\HyField@AuxAddToCoFields[2]{}
\babel@aux{ngerman}{}
\@writefile{toc}{\contentsline {section}{\numberline {1}\IeC {\"U}bung 10}{1}{section.1}}
\@writefile{toc}{\contentsline {subsection}{\numberline {1.1}\IeC {\"U}bung 10a}{1}{subsection.1.1}}
\@writefile{toc}{\contentsline {subsubsection}{\numberline {1.1.1}Bodenrichtwertkarte}{1}{subsubsection.1.1.1}}
\@writefile{lof}{\contentsline {figure}{\numberline {1}{\ignorespaces Ausschnitt der Bodenrichtwertkarte\relax }}{1}{figure.caption.1}}
\providecommand*\caption@xref[2]{\@setref\relax\@undefined{#1}}
\newlabel{Boden}{{1}{1}{Ausschnitt der Bodenrichtwertkarte\relax }{figure.caption.1}{}}
\@writefile{lof}{\contentsline {figure}{\numberline {2}{\ignorespaces Vergleich Bodenrichtwertkarte und Google Maps\relax }}{1}{figure.caption.2}}
\newlabel{Boden}{{2}{1}{Vergleich Bodenrichtwertkarte und Google Maps\relax }{figure.caption.2}{}}
\@writefile{toc}{\contentsline {subsubsection}{\numberline {1.1.2}Coronavirus-Monitor}{2}{subsubsection.1.1.2}}
\@writefile{lof}{\contentsline {figure}{\numberline {3}{\ignorespaces Screenshot der interaktiven Karte\relax }}{2}{figure.caption.3}}
\newlabel{Corona}{{3}{2}{Screenshot der interaktiven Karte\relax }{figure.caption.3}{}}
\@writefile{toc}{\contentsline {subsection}{\numberline {1.2}\IeC {\"U}bung 10c}{3}{subsection.1.2}}
\@writefile{lof}{\contentsline {figure}{\numberline {4}{\ignorespaces Screenshot bei Zoomstufe 16\relax }}{3}{figure.caption.4}}
\newlabel{Karte1}{{4}{3}{Screenshot bei Zoomstufe 16\relax }{figure.caption.4}{}}
\@writefile{lof}{\contentsline {figure}{\numberline {5}{\ignorespaces Screenshot bei Zoomstufe 13\relax }}{3}{figure.caption.5}}
\newlabel{Karte2}{{5}{3}{Screenshot bei Zoomstufe 13\relax }{figure.caption.5}{}}
\@writefile{lof}{\contentsline {figure}{\numberline {6}{\ignorespaces Weglassen von Elementen\relax }}{4}{figure.caption.6}}
\newlabel{VergleichGrossMittel}{{6}{4}{Weglassen von Elementen\relax }{figure.caption.6}{}}
\@writefile{lof}{\contentsline {figure}{\numberline {7}{\ignorespaces Weglassen der Kaserne\relax }}{4}{figure.caption.7}}
\newlabel{Kaserne}{{7}{4}{Weglassen der Kaserne\relax }{figure.caption.7}{}}
\@writefile{lof}{\contentsline {figure}{\numberline {8}{\ignorespaces Screenshot bei Zoomstufe 12\relax }}{4}{figure.caption.8}}
\newlabel{Karte3}{{8}{4}{Screenshot bei Zoomstufe 12\relax }{figure.caption.8}{}}
