\relax 
\providecommand\hyper@newdestlabel[2]{}
\catcode `"\active 
\bibstyle{unsrt}
\providecommand\HyperFirstAtBeginDocument{\AtBeginDocument}
\HyperFirstAtBeginDocument{\ifx\hyper@anchor\@undefined
\global\let\oldcontentsline\contentsline
\gdef\contentsline#1#2#3#4{\oldcontentsline{#1}{#2}{#3}}
\global\let\oldnewlabel\newlabel
\gdef\newlabel#1#2{\newlabelxx{#1}#2}
\gdef\newlabelxx#1#2#3#4#5#6{\oldnewlabel{#1}{{#2}{#3}}}
\AtEndDocument{\ifx\hyper@anchor\@undefined
\let\contentsline\oldcontentsline
\let\newlabel\oldnewlabel
\fi}
\fi}
\global\let\hyper@last\relax 
\gdef\HyperFirstAtBeginDocument#1{#1}
\providecommand\HyField@AuxAddToFields[1]{}
\providecommand\HyField@AuxAddToCoFields[2]{}
\babel@aux{ngerman}{}
\@writefile{toc}{\contentsline {section}{\numberline {1}Aufgabe A.}{1}{section.1}}
\@writefile{lof}{\contentsline {figure}{\numberline {1}{\ignorespaces Visualisierung der Luftdaten im Ruhrgebiet.\relax }}{1}{figure.caption.1}}
\@writefile{lof}{\contentsline {figure}{\numberline {2}{\ignorespaces Ausschnitt der DTK100.\relax }}{1}{figure.caption.2}}
\@writefile{lof}{\contentsline {figure}{\numberline {3}{\ignorespaces GUI zum einbinden des WMS in QGIS.\relax }}{2}{figure.caption.3}}
\@writefile{toc}{\contentsline {section}{\numberline {2}Aufgabe B.}{3}{section.2}}
\@writefile{toc}{\contentsline {subsection}{\numberline {2.1}OpenTopoMap}{3}{subsection.2.1}}
\@writefile{lof}{\contentsline {figure}{\numberline {4}{\ignorespaces Die Kachel 8/133/85.png der OpenTopoMap\relax }}{3}{figure.caption.4}}
\@writefile{toc}{\contentsline {subsection}{\numberline {2.2}Topographische Karte 1:25 000 - OpenGeodata.NRW}{4}{subsection.2.2}}
\@writefile{lof}{\contentsline {figure}{\numberline {5}{\ignorespaces Einzelkachel aus dem 1:50.000 Datensatz.\relax }}{4}{figure.caption.5}}
\@writefile{toc}{\contentsline {subsection}{\numberline {2.3}ESRI Vector Tiles}{5}{subsection.2.3}}
\@writefile{lof}{\contentsline {figure}{\numberline {6}{\ignorespaces Auswahl der Farben f\IeC {\"u}r einzelne Elemente\relax }}{5}{figure.caption.6}}
\@writefile{lof}{\contentsline {figure}{\numberline {7}{\ignorespaces Bearbeiten eines Linienelements\relax }}{5}{figure.caption.6}}
\providecommand*\caption@xref[2]{\@setref\relax\@undefined{#1}}
\newlabel{linie}{{7}{5}{Bearbeiten eines Linienelements\relax }{figure.caption.6}{}}
