\relax 
\providecommand\hyper@newdestlabel[2]{}
\catcode `"\active 
\bibstyle{unsrt}
\providecommand\HyperFirstAtBeginDocument{\AtBeginDocument}
\HyperFirstAtBeginDocument{\ifx\hyper@anchor\@undefined
\global\let\oldcontentsline\contentsline
\gdef\contentsline#1#2#3#4{\oldcontentsline{#1}{#2}{#3}}
\global\let\oldnewlabel\newlabel
\gdef\newlabel#1#2{\newlabelxx{#1}#2}
\gdef\newlabelxx#1#2#3#4#5#6{\oldnewlabel{#1}{{#2}{#3}}}
\AtEndDocument{\ifx\hyper@anchor\@undefined
\let\contentsline\oldcontentsline
\let\newlabel\oldnewlabel
\fi}
\fi}
\global\let\hyper@last\relax 
\gdef\HyperFirstAtBeginDocument#1{#1}
\providecommand\HyField@AuxAddToFields[1]{}
\providecommand\HyField@AuxAddToCoFields[2]{}
\babel@aux{ngerman}{}
\@writefile{toc}{\contentsline {section}{\numberline {1}alte Karte}{1}{section.1}}
\@writefile{toc}{\contentsline {section}{\numberline {2}historische Karte}{1}{section.2}}
\@writefile{toc}{\contentsline {section}{\numberline {3}Faksimile}{1}{section.3}}
\@writefile{toc}{\contentsline {section}{\numberline {4}Infographik}{1}{section.4}}
\@writefile{toc}{\contentsline {section}{\numberline {5}Inselkarte / Rahmenkarte}{2}{section.5}}
\@writefile{toc}{\contentsline {subsection}{\numberline {5.1}Inselkarte}{2}{subsection.5.1}}
\@writefile{toc}{\contentsline {subsection}{\numberline {5.2}Rahmenkarte}{2}{subsection.5.2}}
\@writefile{toc}{\contentsline {section}{\numberline {6}Indexkarte}{2}{section.6}}
\@writefile{toc}{\contentsline {section}{\numberline {7}Geodaten}{2}{section.7}}
\@writefile{toc}{\contentsline {section}{\numberline {8}Basis DLM}{2}{section.8}}
\@writefile{toc}{\contentsline {section}{\numberline {9}DGM}{3}{section.9}}
\@writefile{toc}{\contentsline {section}{\numberline {10}Graphikprogramm (Fokus auf Raster/Vektor)}{3}{section.10}}
\@writefile{toc}{\contentsline {section}{\numberline {11}WFS / WMS}{3}{section.11}}
\@writefile{toc}{\contentsline {subsection}{\numberline {11.1}WFS}{3}{subsection.11.1}}
\@writefile{toc}{\contentsline {subsection}{\numberline {11.2}WMS}{3}{subsection.11.2}}
\@writefile{toc}{\contentsline {section}{\numberline {12}Langzeitspeicherung von Geodaten}{3}{section.12}}
\@writefile{toc}{\contentsline {section}{\numberline {13}Nationale Forschungsdateninfrastruktur}{4}{section.13}}
\@writefile{toc}{\contentsline {section}{\numberline {14}Historische Geodaten}{4}{section.14}}
