\BOOKMARK [1][-]{section.1}{Allgemeine Angaben}{}% 1
\BOOKMARK [2][-]{subsection.1.1}{Aufbau der Seite}{section.1}% 2
\BOOKMARK [2][-]{subsection.1.2}{Funktionalit\344t}{section.1}% 3
\BOOKMARK [2][-]{subsection.1.3}{Intuitive Handhabung}{section.1}% 4
\BOOKMARK [1][-]{section.2}{Inhalt}{}% 5
\BOOKMARK [2][-]{subsection.2.1}{Zielsetzung}{section.2}% 6
\BOOKMARK [2][-]{subsection.2.2}{Nutzbarkeit}{section.2}% 7
\BOOKMARK [1][-]{section.3}{Gesamteindruck}{}% 8
\BOOKMARK [2][-]{subsection.3.1}{Aktualit\344t}{section.3}% 9
\BOOKMARK [2][-]{subsection.3.2}{Sonstiges}{section.3}% 10
