\relax 
\providecommand\hyper@newdestlabel[2]{}
\catcode `"\active 
\bibstyle{unsrt}
\providecommand\HyperFirstAtBeginDocument{\AtBeginDocument}
\HyperFirstAtBeginDocument{\ifx\hyper@anchor\@undefined
\global\let\oldcontentsline\contentsline
\gdef\contentsline#1#2#3#4{\oldcontentsline{#1}{#2}{#3}}
\global\let\oldnewlabel\newlabel
\gdef\newlabel#1#2{\newlabelxx{#1}#2}
\gdef\newlabelxx#1#2#3#4#5#6{\oldnewlabel{#1}{{#2}{#3}}}
\AtEndDocument{\ifx\hyper@anchor\@undefined
\let\contentsline\oldcontentsline
\let\newlabel\oldnewlabel
\fi}
\fi}
\global\let\hyper@last\relax 
\gdef\HyperFirstAtBeginDocument#1{#1}
\providecommand\HyField@AuxAddToFields[1]{}
\providecommand\HyField@AuxAddToCoFields[2]{}
\babel@aux{ngerman}{}
\@writefile{toc}{\contentsline {section}{\numberline {1}Allgemeine Angaben}{1}{section.1}}
\@writefile{toc}{\contentsline {subsection}{\numberline {1.1}Aufbau der Seite}{1}{subsection.1.1}}
\@writefile{toc}{\contentsline {subsection}{\numberline {1.2}Funktionalit\IeC {\"a}t}{1}{subsection.1.2}}
\@writefile{toc}{\contentsline {subsection}{\numberline {1.3}Intuitive Handhabung}{2}{subsection.1.3}}
\@writefile{toc}{\contentsline {section}{\numberline {2}Inhalt}{2}{section.2}}
\@writefile{toc}{\contentsline {subsection}{\numberline {2.1}Zielsetzung}{2}{subsection.2.1}}
\@writefile{toc}{\contentsline {subsection}{\numberline {2.2}Nutzbarkeit}{2}{subsection.2.2}}
\@writefile{toc}{\contentsline {section}{\numberline {3}Gesamteindruck}{2}{section.3}}
\@writefile{toc}{\contentsline {subsection}{\numberline {3.1}Aktualit\IeC {\"a}t}{2}{subsection.3.1}}
\@writefile{toc}{\contentsline {subsection}{\numberline {3.2}Sonstiges}{2}{subsection.3.2}}
