\relax 
\providecommand\hyper@newdestlabel[2]{}
\catcode `"\active 
\bibstyle{unsrt}
\providecommand\HyperFirstAtBeginDocument{\AtBeginDocument}
\HyperFirstAtBeginDocument{\ifx\hyper@anchor\@undefined
\global\let\oldcontentsline\contentsline
\gdef\contentsline#1#2#3#4{\oldcontentsline{#1}{#2}{#3}}
\global\let\oldnewlabel\newlabel
\gdef\newlabel#1#2{\newlabelxx{#1}#2}
\gdef\newlabelxx#1#2#3#4#5#6{\oldnewlabel{#1}{{#2}{#3}}}
\AtEndDocument{\ifx\hyper@anchor\@undefined
\let\contentsline\oldcontentsline
\let\newlabel\oldnewlabel
\fi}
\fi}
\global\let\hyper@last\relax 
\gdef\HyperFirstAtBeginDocument#1{#1}
\providecommand\HyField@AuxAddToFields[1]{}
\providecommand\HyField@AuxAddToCoFields[2]{}
\babel@aux{ngerman}{}
\@writefile{toc}{\contentsline {section}{\numberline {1}Datenbeschaffung}{1}{section.1}}
\@writefile{toc}{\contentsline {section}{\numberline {2}Datenaufarbeitung}{1}{section.2}}
\@writefile{lof}{\contentsline {figure}{\numberline {1}{\ignorespaces Feldberechnung des Feldes Dichte\relax }}{1}{figure.caption.1}}
\providecommand*\caption@xref[2]{\@setref\relax\@undefined{#1}}
\newlabel{Berechnung}{{1}{1}{Feldberechnung des Feldes Dichte\relax }{figure.caption.1}{}}
\@writefile{lof}{\contentsline {figure}{\numberline {2}{\ignorespaces Attributtabelle mit dem Feld Dichte\relax }}{1}{figure.caption.1}}
\@writefile{toc}{\contentsline {section}{\numberline {3}Symbolisierung}{2}{section.3}}
\@writefile{lof}{\contentsline {figure}{\numberline {3}{\ignorespaces Symbolisierung des Layers\relax }}{2}{figure.caption.2}}
\@writefile{lof}{\contentsline {figure}{\numberline {4}{\ignorespaces Klassifizierung der Anzahl\relax }}{2}{figure.caption.2}}
\@writefile{lof}{\contentsline {figure}{\numberline {5}{\ignorespaces Beschriftung des Layers\relax }}{2}{figure.caption.3}}
